Week_6.sim/sim_1/behav/xsim/dump.vcd
$date
   Fri Oct 17 10:15:28 2025
$end

$version
  2024.1
$end

$timescale
  1ps
$end

$scope module test $end
$var reg 8 ! sw [7:0] $end
$var wire 5 " led [4:0] $end
$scope module uut $end
$var wire 8 # sw [7:0] $end
$var wire 6 $ led [5:0] $end
$var wire 1 % carry $end
$scope module light_inst $end
$var wire 1 & downstairs $end
$var wire 1 ' upstairs $end
$var wire 1 ( light $end
$upscope $end
$scope module adder_inst $end
$var wire 1 ) A $end
$var wire 1 * B $end
$var wire 1 + Y $end
$var wire 1 , carry $end
$upscope $end
$scope module lsb $end
$var wire 1 - A $end
$var wire 1 . B $end
$var wire 1 / Cin $end
$var wire 1 0 Y $end
$var wire 1 % carryout $end
$upscope $end
$scope module msb $end
$var wire 1 1 A $end
$var wire 1 2 B $end
$var wire 1 % Cin $end
$var wire 1 3 Y $end
$var wire 1 4 carryout $end
$upscope $end
$upscope $end
$upscope $end
$enddefinitions $end

#0
$dumpvars
b0 !
b0x000 "
b0 #
bz0x000 $
0%
0&
0'
0(
0)
0*
0+
0,
0-
0.
z/
x0
01
02
03
04
$end

#200000
b10110 !
bx011 "
b10110 #
bzxx011 $
x%
0&
1'
1(
1)
0*
1+
1-
0.
01
02
x3

#400000
b101001 !
b1x011 "
b101001 #
bz1x011 $
0%
1&
0'
0)
1*
0-
0.
11
02
13

#600000
b111111 !
bx100 "
b111111 #
bzxx100 $
x%
1&
1'
0(
1)
1*
0+
1,
1-
0.
11
02
x3
x4

#800000
b1001111 !
b1001111 #
1&
1'
1)
1*
0-
1.
01
02
04

#1000000
b1011111 !
b1x100 "
b1011111 #
bz1x100 $
1%
1&
1'
1)
1*
1-
1.
01
02
13

#1200000
b1101111 !
bx100 "
b1101111 #
bzxx100 $
x%
1&
1'
1)
1*
0-
1.
11
02
x3
x4

#1400000
b1111111 !
b0x100 "
b1111111 #
bz0x100 $
1%
1&
1'
1)
1*
1-
1.
11
02
03
14

#1600000
b10001111 !
b1x100 "
b10001111 #
bz1x100 $
0%
1&
1'
1)
1*
0-
0.
01
12
13
04

#1800000
b10011111 !
bx100 "
b10011111 #
bzxx100 $
x%
1&
1'
1)
1*
1-
0.
01
12
x3
x4

#2000000
b10101111 !
b0x100 "
b10101111 #
bz0x100 $
0%
1&
1'
1)
1*
0-
0.
11
12
03
14

#2200000
b10111111 !
bx100 "
b10111111 #
bzxx100 $
x%
1&
1'
1)
1*
1-
0.
11
12
x3

#2400000
b11001111 !
b11001111 #
1&
1'
1)
1*
0-
1.
01
12
x4

#2600000
b11011111 !
b0x100 "
b11011111 #
bz0x100 $
1%
1&
1'
1)
1*
1-
1.
01
12
03
14

#2800000
b11101111 !
bx100 "
b11101111 #
bzxx100 $
x%
1&
1'
1)
1*
0-
1.
11
12
x3

#3000000
b11111111 !
b1x100 "
b11111111 #
bz1x100 $
1%
1&
1'
1)
1*
1-
1.
11
12
13
